<?xml version="1.0" encoding="UTF-8" standalone="no"?>
<!-- Created with Inkscape (http://www.inkscape.org/) -->

<svg
   xmlns:dc="http://purl.org/dc/elements/1.1/"
   xmlns:cc="http://creativecommons.org/ns#"
   xmlns:rdf="http://www.w3.org/1999/02/22-rdf-syntax-ns#"
   xmlns:svg="http://www.w3.org/2000/svg"
   xmlns="http://www.w3.org/2000/svg"
   xmlns:xlink="http://www.w3.org/1999/xlink"
   xmlns:sodipodi="http://sodipodi.sourceforge.net/DTD/sodipodi-0.dtd"
   xmlns:inkscape="http://www.inkscape.org/namespaces/inkscape"
   width="305.19968mm"
   height="318.02866mm"
   viewBox="0 0 305.19968 318.02866"
   version="1.1"
   id="svg8"
   inkscape:version="0.92.1 r15371"
   sodipodi:docname="tank.svg">
  <defs
     id="defs2">
    <linearGradient
       inkscape:collect="always"
       id="linearGradient4582">
      <stop
         style="stop-color:#e3e3e3;stop-opacity:1"
         offset="0"
         id="stop4578" />
      <stop
         style="stop-color:#7c7c7c;stop-opacity:1"
         offset="1"
         id="stop4580" />
    </linearGradient>
    <linearGradient
       inkscape:collect="always"
       id="linearGradient4572">
      <stop
         style="stop-color:#cdcdcd;stop-opacity:1"
         offset="0"
         id="stop4568" />
      <stop
         style="stop-color:#989898;stop-opacity:1"
         offset="1"
         id="stop4570" />
    </linearGradient>
    <linearGradient
       inkscape:collect="always"
       id="linearGradient4560">
      <stop
         style="stop-color:#bfbfbf;stop-opacity:1"
         offset="0"
         id="stop4556" />
      <stop
         style="stop-color:#949494;stop-opacity:1"
         offset="1"
         id="stop4558" />
    </linearGradient>
    <linearGradient
       inkscape:collect="always"
       id="linearGradient4491">
      <stop
         style="stop-color:#050505;stop-opacity:1"
         offset="0"
         id="stop4487" />
      <stop
         style="stop-color:#949494;stop-opacity:1"
         offset="1"
         id="stop4489" />
    </linearGradient>
    <radialGradient
       inkscape:collect="always"
       xlink:href="#linearGradient4491"
       id="radialGradient4495"
       cx="-12.828941"
       cy="122.60663"
       fx="-12.828941"
       fy="122.60663"
       r="79.910896"
       gradientTransform="matrix(2.1170945,4.8516231e-8,-1.0997949e-8,0.47991565,16.469293,63.765791)"
       gradientUnits="userSpaceOnUse" />
    <radialGradient
       inkscape:collect="always"
       xlink:href="#linearGradient4491"
       id="radialGradient4495-6"
       cx="-12.828941"
       cy="122.60663"
       fx="-12.828941"
       fy="122.60663"
       r="79.910896"
       gradientTransform="matrix(2.1170945,4.851623e-8,-1.0997949e-8,0.47991564,16.469294,-32.985778)"
       gradientUnits="userSpaceOnUse" />
    <radialGradient
       inkscape:collect="always"
       xlink:href="#linearGradient4560"
       id="radialGradient4562"
       cx="576.75586"
       cy="533.82422"
       fx="576.75586"
       fy="533.82422"
       r="334.86523"
       gradientTransform="matrix(0.26458333,0,0,0.55272149,-163.29063,-247.28488)"
       gradientUnits="userSpaceOnUse" />
    <radialGradient
       inkscape:collect="always"
       xlink:href="#linearGradient4572"
       id="radialGradient4576"
       cx="-10.690645"
       cy="7.1351395"
       fx="-10.690645"
       fy="7.1351395"
       r="14.83346"
       gradientTransform="matrix(1,0,0,8.9369362,0,-56.631147)"
       gradientUnits="userSpaceOnUse" />
    <radialGradient
       inkscape:collect="always"
       xlink:href="#linearGradient4582"
       id="radialGradient4584"
       cx="-10.690645"
       cy="70.210747"
       fx="-10.690645"
       fy="70.210747"
       r="40.624966"
       gradientUnits="userSpaceOnUse" />
  </defs>
  <sodipodi:namedview
     id="base"
     pagecolor="#ffffff"
     bordercolor="#666666"
     borderopacity="1.0"
     inkscape:pageopacity="0.0"
     inkscape:pageshadow="2"
     inkscape:zoom="0.35"
     inkscape:cx="552.87571"
     inkscape:cy="745.91882"
     inkscape:document-units="mm"
     inkscape:current-layer="layer1"
     showgrid="false"
     fit-margin-top="64"
     fit-margin-left="64"
     fit-margin-right="64"
     fit-margin-bottom="64"
     inkscape:window-width="1920"
     inkscape:window-height="1027"
     inkscape:window-x="-8"
     inkscape:window-y="-8"
     inkscape:window-maximized="1" />
  <metadata
     id="metadata5">
    <rdf:RDF>
      <cc:Work
         rdf:about="">
        <dc:format>image/svg+xml</dc:format>
        <dc:type
           rdf:resource="http://purl.org/dc/dcmitype/StillImage" />
        <dc:title></dc:title>
      </cc:Work>
    </rdf:RDF>
  </metadata>
  <g
     inkscape:label="Layer 1"
     inkscape:groupmode="layer"
     id="layer1"
     transform="translate(163.29063,96.008808)">
    <rect
       style="opacity:1;fill:url(#radialGradient4495-6);fill-opacity:1;stroke:none;stroke-width:0.52916664;stroke-linecap:round;stroke-linejoin:round;stroke-miterlimit:4;stroke-dasharray:none;stroke-opacity:1;paint-order:normal"
       id="rect4485-2"
       width="159.29263"
       height="56.92841"
       x="-90.337105"
       y="-2.6091435"
       rx="8.6000013" />
    <rect
       style="opacity:1;fill:url(#radialGradient4495);fill-opacity:1;stroke:none;stroke-width:0.52916664;stroke-linecap:round;stroke-linejoin:round;stroke-miterlimit:4;stroke-dasharray:none;stroke-opacity:1;paint-order:normal"
       id="rect4485"
       width="159.29263"
       height="56.92841"
       x="-90.337105"
       y="94.142426"
       rx="8.6000004" />
    <rect
       style="opacity:1;fill:#858585;fill-opacity:1;stroke:none;stroke-width:0.52916664;stroke-linecap:round;stroke-linejoin:round;stroke-miterlimit:4;stroke-dasharray:none;stroke-opacity:1;paint-order:normal"
       id="rect4497"
       width="91.940712"
       height="184.68324"
       x="-56.661144"
       y="-26.663393"
       rx="8.5999899" />
    <path
       style="opacity:1;fill:url(#radialGradient4562);fill-opacity:1;stroke:none;stroke-width:0.52916664;stroke-linecap:round;stroke-linejoin:round;stroke-miterlimit:4;stroke-dasharray:none;stroke-opacity:1;paint-order:normal"
       d="m -88.755646,-34.414004 c -5.836391,0 -10.534758,4.999129 -10.534758,11.20913 v 11.137649 11.20967845 H 77.909114 v -20.47510745 -1.87222 c 0,-6.210001 -4.698884,-11.20913 -10.535275,-11.20913 z m 17.802013,43.7940093 c -6.148289,3e-6 -11.09803,5.2665927 -11.09803,11.8084617 v 96.959563 c 0,6.54187 4.949741,11.80846 11.09803,11.80846 H 49.572342 c 6.148292,0 11.098033,-5.26659 11.098033,-11.80846 V 21.188467 c 0,-6.541869 -4.949741,-11.8084617 -11.098033,-11.8084617 z"
       id="rect4499"
       inkscape:connector-curvature="0" />
    <rect
       style="opacity:1;fill:url(#radialGradient4576);fill-opacity:1;stroke:none;stroke-width:0.52916664;stroke-linecap:round;stroke-linejoin:round;stroke-miterlimit:4;stroke-dasharray:none;stroke-opacity:1;paint-order:normal"
       id="rect4566"
       width="29.66692"
       height="110.11504"
       x="-25.524105"
       y="-47.922382"
       rx="7.9450002" />
    <circle
       style="opacity:1;fill:url(#radialGradient4584);fill-opacity:1;stroke:none;stroke-width:0.52916664;stroke-linecap:round;stroke-linejoin:round;stroke-miterlimit:4;stroke-dasharray:none;stroke-opacity:1;paint-order:normal"
       id="path4564"
       cx="-10.690645"
       cy="70.210747"
       r="40.624966" />
  </g>
</svg>
